{
  "project_info": {
    "project_number": "411106026156",
    "firebase_url": "https://pidoylistofirebase.firebaseio.com",
    "project_id": "pidoylistofirebase",
    "storage_bucket": "pidoylistofirebase.appspot.com"
  },
  "client": [
    {
      "client_info": {
        "mobilesdk_app_id": "1:411106026156:android:ced292fb79623a15f13509",
        "android_client_info": {
          "package_name": "com.pidoylistodriver"
        }
      },
      "oauth_client": [
        {
          "client_id": "411106026156-ngiiajg5dcojc9ipe3k9eruhbb15lt0u.apps.googleusercontent.com",
          "client_type": 1,
          "android_info": {
            "package_name": "com.pidoylistodriver",
            "certificate_hash": "1c6ff4416864144323924ddd31c8dff108c3ab11"
          }
        },
        {
          "client_id": "411106026156-e7k0q2f9ntd3bp7rrqjup48jcn7cskk4.apps.googleusercontent.com",
          "client_type": 1,
          "android_info": {
            "package_name": "com.pidoylistodriver",
            "certificate_hash": "6b37e14a636a5e201d9c88eb274f068bd717c3e9"
          }
        },
        {
          "client_id": "411106026156-3c5albh8ui2472cmnlbmgseou2nkpoov.apps.googleusercontent.com",
          "client_type": 1,
          "android_info": {
            "package_name": "com.pidoylistodriver",
            "certificate_hash": "6133a41ca75d5e3d9ab426be54e548a004c75c2c"
          }
        },
        {
          "client_id": "411106026156-ksjbc7kpj184kqj15u089jhept2dbk63.apps.googleusercontent.com",
          "client_type": 3
        }
      ],
      "api_key": [
        {
          "current_key": "AIzaSyCzfd_T8-TF7E3eus1dinVXjR-zwm0RIMQ"
        }
      ],
      "services": {
        "appinvite_service": {
          "other_platform_oauth_client": [
            {
              "client_id": "411106026156-ksjbc7kpj184kqj15u089jhept2dbk63.apps.googleusercontent.com",
              "client_type": 3
            },
            {
              "client_id": "411106026156-qjh3tca2sko3qkb1luvf3kvfo91kivc4.apps.googleusercontent.com",
              "client_type": 2,
              "ios_info": {
                "bundle_id": "com.inove.INOVEProd"
              }
            }
          ]
        }
      }
    },
    {
      "client_info": {
        "mobilesdk_app_id": "1:411106026156:android:7e63a03ff4ae449df13509",
        "android_client_info": {
          "package_name": "com.pidoylistomerchant"
        }
      },
      "oauth_client": [
        {
          "client_id": "411106026156-kg5774d5ijk1fmemenu89rp1unigt9n6.apps.googleusercontent.com",
          "client_type": 1,
          "android_info": {
            "package_name": "com.pidoylistomerchant",
            "certificate_hash": "5e8f16062ea3cd2c4a0d547876baa6f38cabf625"
          }
        },
        {
          "client_id": "411106026156-40cqete670bssc0lqb91teot04guqn1i.apps.googleusercontent.com",
          "client_type": 1,
          "android_info": {
            "package_name": "com.pidoylistomerchant",
            "certificate_hash": "f4df8a3ffc029c0f6d86b6f2bb4877986005fc11"
          }
        },
        {
          "client_id": "411106026156-ksjbc7kpj184kqj15u089jhept2dbk63.apps.googleusercontent.com",
          "client_type": 3
        }
      ],
      "api_key": [
        {
          "current_key": "AIzaSyCzfd_T8-TF7E3eus1dinVXjR-zwm0RIMQ"
        }
      ],
      "services": {
        "appinvite_service": {
          "other_platform_oauth_client": [
            {
              "client_id": "411106026156-ksjbc7kpj184kqj15u089jhept2dbk63.apps.googleusercontent.com",
              "client_type": 3
            },
            {
              "client_id": "411106026156-qjh3tca2sko3qkb1luvf3kvfo91kivc4.apps.googleusercontent.com",
              "client_type": 2,
              "ios_info": {
                "bundle_id": "com.inove.INOVEProd"
              }
            }
          ]
        }
      }
    }
  ],
  "configuration_version": "1"
}